
('127.0.0.1', 38995);('127.0.0.1', 27986);2013-04-08 16:03:00.968240;play:SonicTennis:4
('127.0.0.1', 27986);('127.0.0.1', 38995);2013-04-08 16:03:00.968443;play:SonicTennis:4
('127.0.0.1', 38996);('127.0.0.1', 27986);2013-04-08 16:03:14.223646;play:SonicTennis:4
('127.0.0.1', 27986);('127.0.0.1', 38996);2013-04-08 16:03:14.224049;play:SonicTennis:4
('127.0.0.1', 38996);('127.0.0.1', 27986);2013-04-08 16:03:14.224465;make:Test:1.000000:3
('127.0.0.1', 27986);('127.0.0.1', 38996);2013-04-08 16:03:14.224981;join:Test_0
('127.0.0.1', 27986);('127.0.0.1', 38996);2013-04-08 16:03:14.225193;new:Test_0
('127.0.0.1', 38996);('127.0.0.1', 27986);2013-04-08 16:03:14.225399;ready
('127.0.0.1', 27986);('127.0.0.1', 38996);2013-04-08 16:03:14.225624;lives:3
('127.0.0.1', 38997);('127.0.0.1', 27986);2013-04-08 16:03:25.139359;play:SonicTennis:4
('127.0.0.1', 27986);('127.0.0.1', 38997);2013-04-08 16:03:25.139713;play:SonicTennis:4
('127.0.0.1', 38997);('127.0.0.1', 27986);2013-04-08 16:03:35.379098;join:Test_0
('127.0.0.1', 27986);('127.0.0.1', 38997);2013-04-08 16:03:35.379583;join:Test_0
('127.0.0.1', 27986);('127.0.0.1', 38997);2013-04-08 16:03:35.379797;del:Test_0
('127.0.0.1', 27986);('127.0.0.1', 38996);2013-04-08 16:03:35.380069;del:Test_0
('127.0.0.1', 38997);('127.0.0.1', 27986);2013-04-08 16:03:38.388960;ready
('127.0.0.1', 27986);('127.0.0.1', 38997);2013-04-08 16:03:38.389412;lives:3
('127.0.0.1', 27986);('127.0.0.1', 38996);2013-04-08 16:03:38.389626;serve
('127.0.0.1', 27986);('127.0.0.1', 38997);2013-04-08 16:03:38.389817;recv
('127.0.0.1', 38996);('127.0.0.1', 27986);2013-04-08 16:03:42.390932;hit:c
('127.0.0.1', 27986);('127.0.0.1', 38996);2013-04-08 16:03:42.391445;ownh
('127.0.0.1', 27986);('127.0.0.1', 38997);2013-04-08 16:03:42.391702;opph:r
('127.0.0.1', 27986);('127.0.0.1', 38996);2013-04-08 16:03:43.392823;oppb
('127.0.0.1', 27986);('127.0.0.1', 38997);2013-04-08 16:03:43.393222;ownb:r
('127.0.0.1', 27986);('127.0.0.1', 38996);2013-04-08 16:03:43.545888;part:Test_0
('127.0.0.1', 27986);('127.0.0.1', 38996);2013-04-08 16:03:43.546230;del:Test_0
('127.0.0.1', 39036);('127.0.0.1', 27986);2013-04-08 16:05:16.874275;play:SonicTennis:4
('127.0.0.1', 27986);('127.0.0.1', 39036);2013-04-08 16:05:16.874720;play:SonicTennis:4
('127.0.0.1', 39036);('127.0.0.1', 27986);2013-04-08 16:05:16.874996;make:Test:1.000000:3
('127.0.0.1', 27986);('127.0.0.1', 39036);2013-04-08 16:05:16.875510;join:Test_0
('127.0.0.1', 27986);('127.0.0.1', 39036);2013-04-08 16:05:16.875726;new:Test_0
('127.0.0.1', 39036);('127.0.0.1', 27986);2013-04-08 16:05:16.875913;ready
('127.0.0.1', 27986);('127.0.0.1', 39036);2013-04-08 16:05:16.876129;lives:3
('127.0.0.1', 39037);('127.0.0.1', 27986);2013-04-08 16:05:26.950235;play:SonicTennis:4
('127.0.0.1', 27986);('127.0.0.1', 39037);2013-04-08 16:05:26.950599;play:SonicTennis:4
('127.0.0.1', 39037);('127.0.0.1', 27986);2013-04-08 16:05:33.661801;join:Test_0
('127.0.0.1', 27986);('127.0.0.1', 39037);2013-04-08 16:05:33.662288;join:Test_0
('127.0.0.1', 27986);('127.0.0.1', 39037);2013-04-08 16:05:33.662495;del:Test_0
('127.0.0.1', 27986);('127.0.0.1', 39036);2013-04-08 16:05:33.662698;del:Test_0
('127.0.0.1', 39037);('127.0.0.1', 27986);2013-04-08 16:05:36.059025;ready
('127.0.0.1', 27986);('127.0.0.1', 39037);2013-04-08 16:05:36.059463;lives:3
('127.0.0.1', 27986);('127.0.0.1', 39036);2013-04-08 16:05:36.059666;serve
('127.0.0.1', 27986);('127.0.0.1', 39037);2013-04-08 16:05:36.059896;recv
('127.0.0.1', 39036);('127.0.0.1', 27986);2013-04-08 16:05:40.060936;hit:c
('127.0.0.1', 27986);('127.0.0.1', 39036);2013-04-08 16:05:40.061452;ownh
('127.0.0.1', 27986);('127.0.0.1', 39037);2013-04-08 16:05:40.061686;opph:l
('127.0.0.1', 27986);('127.0.0.1', 39036);2013-04-08 16:05:41.062765;oppb
('127.0.0.1', 27986);('127.0.0.1', 39037);2013-04-08 16:05:41.063101;ownb:l
('127.0.0.1', 27986);('127.0.0.1', 39036);2013-04-08 16:05:41.299608;part:Test_0
('127.0.0.1', 39036);('127.0.0.1', 27986);2013-04-08 16:05:41.300075;make:Test:1.000000:3
('127.0.0.1', 27986);('127.0.0.1', 39036);2013-04-08 16:05:41.300614;join:Test_0
('127.0.0.1', 27986);('127.0.0.1', 39036);2013-04-08 16:05:41.300878;new:Test_0
('127.0.0.1', 27986);('127.0.0.1', 39036);2013-04-08 16:05:41.301116;del:Test_0
('127.0.0.1', 39036);('127.0.0.1', 27986);2013-04-08 16:05:41.341080;ready
('127.0.0.1', 27986);('127.0.0.1', 39036);2013-04-08 16:05:41.342157;lives:3
('127.0.0.1', 27986);('127.0.0.1', 39036);2013-04-08 16:05:42.865057;good:3:2
('127.0.0.1', 27986);('127.0.0.1', 39036);2013-04-08 16:05:42.865423;serve
('127.0.0.1', 39036);('127.0.0.1', 27986);2013-04-08 16:05:46.866634;hit:c
('127.0.0.1', 27986);('127.0.0.1', 39036);2013-04-08 16:05:46.867138;miss
('127.0.0.1', 39038);('127.0.0.1', 27986);2013-04-08 16:08:06.637428;play:SonicTennis:4
('127.0.0.1', 27986);('127.0.0.1', 39038);2013-04-08 16:08:06.637754;play:SonicTennis:4
('127.0.0.1', 39038);('127.0.0.1', 27986);2013-04-08 16:08:06.638084;make:Test:1.000000:3
('127.0.0.1', 27986);('127.0.0.1', 39038);2013-04-08 16:08:06.638476;join:Test_0
('127.0.0.1', 27986);('127.0.0.1', 39038);2013-04-08 16:08:06.638623;new:Test_0
('127.0.0.1', 39038);('127.0.0.1', 27986);2013-04-08 16:08:06.638760;ready
('127.0.0.1', 27986);('127.0.0.1', 39038);2013-04-08 16:08:06.638965;lives:3
('127.0.0.1', 39039);('127.0.0.1', 27986);2013-04-08 16:08:17.101837;play:SonicTennis:4
('127.0.0.1', 27986);('127.0.0.1', 39039);2013-04-08 16:08:17.102187;play:SonicTennis:4
('127.0.0.1', 39039);('127.0.0.1', 27986);2013-04-08 16:08:25.211062;join:Test_0
('127.0.0.1', 27986);('127.0.0.1', 39039);2013-04-08 16:08:25.211537;join:Test_0
('127.0.0.1', 27986);('127.0.0.1', 39039);2013-04-08 16:08:25.211725;del:Test_0
('127.0.0.1', 27986);('127.0.0.1', 39038);2013-04-08 16:08:25.211875;del:Test_0
('127.0.0.1', 27986);('127.0.0.1', 39038);2013-04-08 16:08:35.246150;part:Test_0
('127.0.0.1', 39038);('127.0.0.1', 27986);2013-04-08 16:08:35.246516;make:Test:1.000000:3
('127.0.0.1', 27986);('127.0.0.1', 39038);2013-04-08 16:08:35.246721;del:Test_0
('127.0.0.1', 27986);('127.0.0.1', 39038);2013-04-08 16:08:35.247225;join:Test_0
('127.0.0.1', 27986);('127.0.0.1', 39038);2013-04-08 16:08:35.247500;new:Test_0
('127.0.0.1', 39038);('127.0.0.1', 27986);2013-04-08 16:08:35.287891;ready
('127.0.0.1', 27986);('127.0.0.1', 39038);2013-04-08 16:08:35.289066;lives:3
('127.0.0.1', 39040);('127.0.0.1', 27986);2013-04-08 16:08:58.475091;play:SonicTennis:4
('127.0.0.1', 27986);('127.0.0.1', 39040);2013-04-08 16:08:58.475457;play:SonicTennis:4
('127.0.0.1', 39040);('127.0.0.1', 27986);2013-04-08 16:09:16.990979;join:Test_0
('127.0.0.1', 27986);('127.0.0.1', 39040);2013-04-08 16:09:16.991445;join:Test_0
('127.0.0.1', 27986);('127.0.0.1', 39040);2013-04-08 16:09:16.991662;del:Test_0
('127.0.0.1', 27986);('127.0.0.1', 39038);2013-04-08 16:09:16.991870;del:Test_0
('127.0.0.1', 39040);('127.0.0.1', 27986);2013-04-08 16:09:20.061265;ready
('127.0.0.1', 27986);('127.0.0.1', 39040);2013-04-08 16:09:20.061688;lives:3
('127.0.0.1', 27986);('127.0.0.1', 39038);2013-04-08 16:09:20.061892;serve
('127.0.0.1', 27986);('127.0.0.1', 39040);2013-04-08 16:09:20.062066;recv
('127.0.0.1', 39038);('127.0.0.1', 27986);2013-04-08 16:09:24.063202;hit:c
('127.0.0.1', 27986);('127.0.0.1', 39038);2013-04-08 16:09:24.063733;ownh
('127.0.0.1', 27986);('127.0.0.1', 39040);2013-04-08 16:09:24.063986;opph:l
('127.0.0.1', 27986);('127.0.0.1', 39038);2013-04-08 16:09:25.065121;oppb
('127.0.0.1', 27986);('127.0.0.1', 39040);2013-04-08 16:09:25.065453;ownb:l
('127.0.0.1', 27986);('127.0.0.1', 39038);2013-04-08 16:09:25.377849;part:Test_0
('127.0.0.1', 39038);('127.0.0.1', 27986);2013-04-08 16:09:25.378268;make:Test:1.000000:3
('127.0.0.1', 27986);('127.0.0.1', 39038);2013-04-08 16:09:25.378810;join:Test_0
('127.0.0.1', 27986);('127.0.0.1', 39038);2013-04-08 16:09:25.379075;new:Test_0
('127.0.0.1', 27986);('127.0.0.1', 39038);2013-04-08 16:09:25.379295;del:Test_0
('127.0.0.1', 39038);('127.0.0.1', 27986);2013-04-08 16:09:25.417735;ready
('127.0.0.1', 27986);('127.0.0.1', 39038);2013-04-08 16:09:25.418489;lives:3
('127.0.0.1', 27986);('127.0.0.1', 39038);2013-04-08 16:09:26.867510;good:3:2
('127.0.0.1', 27986);('127.0.0.1', 39038);2013-04-08 16:09:26.867892;serve
('127.0.0.1', 39038);('127.0.0.1', 27986);2013-04-08 16:09:30.869161;hit:c
('127.0.0.1', 27986);('127.0.0.1', 39038);2013-04-08 16:09:30.869703;miss
('127.0.0.1', 39041);('127.0.0.1', 27986);2013-04-08 16:11:39.238521;play:SonicTennis:4
('127.0.0.1', 27986);('127.0.0.1', 39041);2013-04-08 16:11:39.238832;play:SonicTennis:4
('127.0.0.1', 39041);('127.0.0.1', 27986);2013-04-08 16:11:39.239141;make:Test:1.000000:3
('127.0.0.1', 27986);('127.0.0.1', 39041);2013-04-08 16:11:39.239491;join:Test_0
('127.0.0.1', 27986);('127.0.0.1', 39041);2013-04-08 16:11:39.239633;new:Test_0
('127.0.0.1', 39041);('127.0.0.1', 27986);2013-04-08 16:11:39.239769;ready
('127.0.0.1', 27986);('127.0.0.1', 39041);2013-04-08 16:11:39.240010;lives:3
('127.0.0.1', 39042);('127.0.0.1', 27986);2013-04-08 16:11:59.519956;play:SonicTennis:4
('127.0.0.1', 27986);('127.0.0.1', 39042);2013-04-08 16:11:59.520313;play:SonicTennis:4
('127.0.0.1', 39042);('127.0.0.1', 27986);2013-04-08 16:12:05.717446;join:Test_0
('127.0.0.1', 27986);('127.0.0.1', 39042);2013-04-08 16:12:05.717917;join:Test_0
('127.0.0.1', 27986);('127.0.0.1', 39041);2013-04-08 16:12:05.718136;del:Test_0
('127.0.0.1', 27986);('127.0.0.1', 39042);2013-04-08 16:12:05.718343;del:Test_0
('127.0.0.1', 39042);('127.0.0.1', 27986);2013-04-08 16:12:10.382095;ready
('127.0.0.1', 27986);('127.0.0.1', 39042);2013-04-08 16:12:10.382519;lives:3
('127.0.0.1', 27986);('127.0.0.1', 39041);2013-04-08 16:12:10.382724;serve
('127.0.0.1', 27986);('127.0.0.1', 39042);2013-04-08 16:12:10.382923;recv
('127.0.0.1', 39041);('127.0.0.1', 27986);2013-04-08 16:12:14.384031;hit:c
('127.0.0.1', 27986);('127.0.0.1', 39041);2013-04-08 16:12:14.384510;ownh
('127.0.0.1', 27986);('127.0.0.1', 39042);2013-04-08 16:12:14.384702;opph:r
('127.0.0.1', 27986);('127.0.0.1', 39041);2013-04-08 16:12:15.385830;oppb
('127.0.0.1', 27986);('127.0.0.1', 39042);2013-04-08 16:12:15.386180;ownb:r
('127.0.0.1', 27986);('127.0.0.1', 39041);2013-04-08 16:12:15.620111;part:Test_0
('127.0.0.1', 39041);('127.0.0.1', 27986);2013-04-08 16:12:15.620505;make:Test:1.000000:3
('127.0.0.1', 27986);('127.0.0.1', 39041);2013-04-08 16:12:15.620938;join:Test_0
('127.0.0.1', 27986);('127.0.0.1', 39041);2013-04-08 16:12:15.621095;new:Test_0
('127.0.0.1', 27986);('127.0.0.1', 39041);2013-04-08 16:12:15.621268;del:Test_0
('127.0.0.1', 39041);('127.0.0.1', 27986);2013-04-08 16:12:15.660955;ready
('127.0.0.1', 27986);('127.0.0.1', 39041);2013-04-08 16:12:15.662146;lives:3
('127.0.0.1', 27986);('127.0.0.1', 39041);2013-04-08 16:12:17.188172;good:3:2
('127.0.0.1', 27986);('127.0.0.1', 39041);2013-04-08 16:12:17.188557;serve
('127.0.0.1', 39041);('127.0.0.1', 27986);2013-04-08 16:12:21.189842;hit:c
('127.0.0.1', 27986);('127.0.0.1', 39041);2013-04-08 16:12:21.190273;miss
('127.0.0.1', 39050);('127.0.0.1', 27986);2013-04-08 16:59:59.823450;play:SonicTennis:4
('127.0.0.1', 27986);('127.0.0.1', 39050);2013-04-08 16:59:59.823563;play:SonicTennis:4
('127.0.0.1', 39050);('127.0.0.1', 27986);2013-04-08 16:59:59.823867;make:Test:1.000000:3
('127.0.0.1', 27986);('127.0.0.1', 39050);2013-04-08 16:59:59.824030;join:Test_0
('127.0.0.1', 27986);('127.0.0.1', 39050);2013-04-08 16:59:59.824069;new:Test_0
('127.0.0.1', 39050);('127.0.0.1', 27986);2013-04-08 16:59:59.824111;ready
('127.0.0.1', 27986);('127.0.0.1', 39050);2013-04-08 16:59:59.824170;lives:3
('127.0.0.1', 39049);('127.0.0.1', 27986);2013-04-08 17:00:06.966600;play:SonicTennis:4
('127.0.0.1', 27986);('127.0.0.1', 39049);2013-04-08 17:00:06.966958;play:SonicTennis:4
('127.0.0.1', 39049);('127.0.0.1', 27986);2013-04-08 17:00:20.890219;join:Test_0
('127.0.0.1', 27986);('127.0.0.1', 39049);2013-04-08 17:00:20.890712;join:Test_0
('127.0.0.1', 27986);('127.0.0.1', 39049);2013-04-08 17:00:20.891368;del:Test_0
('127.0.0.1', 27986);('127.0.0.1', 39050);2013-04-08 17:00:20.891570;del:Test_0
('127.0.0.1', 39049);('127.0.0.1', 27986);2013-04-08 17:00:23.793206;ready
('127.0.0.1', 27986);('127.0.0.1', 39049);2013-04-08 17:00:23.793639;lives:3
('127.0.0.1', 27986);('127.0.0.1', 39050);2013-04-08 17:00:23.793844;serve
('127.0.0.1', 27986);('127.0.0.1', 39049);2013-04-08 17:00:23.794055;recv
('127.0.0.1', 39050);('127.0.0.1', 27986);2013-04-08 17:00:27.795097;hit:c
('127.0.0.1', 27986);('127.0.0.1', 39050);2013-04-08 17:00:27.795630;ownh
('127.0.0.1', 27986);('127.0.0.1', 39049);2013-04-08 17:00:27.795880;opph:l
('127.0.0.1', 27986);('127.0.0.1', 39050);2013-04-08 17:00:28.797494;oppb
('127.0.0.1', 27986);('127.0.0.1', 39049);2013-04-08 17:00:28.797821;ownb:l
('127.0.0.1', 27986);('127.0.0.1', 39050);2013-04-08 17:00:29.111903;part:Test_0
('127.0.0.1', 27986);('127.0.0.1', 39050);2013-04-08 17:00:29.112473;del:Test_0
('127.0.0.1', 39050);('127.0.0.1', 27986);2013-04-08 17:00:29.112325;make:Test:1.000000:3
('127.0.0.1', 27986);('127.0.0.1', 39050);2013-04-08 17:00:29.113266;join:Test_0
('127.0.0.1', 27986);('127.0.0.1', 39050);2013-04-08 17:00:29.113587;new:Test_0
('127.0.0.1', 39050);('127.0.0.1', 27986);2013-04-08 17:00:29.154177;ready
('127.0.0.1', 27986);('127.0.0.1', 39050);2013-04-08 17:00:29.155312;lives:3
('127.0.0.1', 39051);('127.0.0.1', 27986);2013-04-08 17:02:00.846270;play:SonicTennis:4
('127.0.0.1', 27986);('127.0.0.1', 39051);2013-04-08 17:02:00.846554;play:SonicTennis:4
('127.0.0.1', 39051);('127.0.0.1', 27986);2013-04-08 17:02:00.846798;make:Test:1.000000:3
('127.0.0.1', 27986);('127.0.0.1', 39051);2013-04-08 17:02:00.847217;join:Test_1
('127.0.0.1', 27986);('127.0.0.1', 39051);2013-04-08 17:02:00.847384;new:Test_1
('127.0.0.1', 39051);('127.0.0.1', 27986);2013-04-08 17:02:00.847534;ready
('127.0.0.1', 27986);('127.0.0.1', 39051);2013-04-08 17:02:00.847747;lives:3
('127.0.0.1', 39052);('127.0.0.1', 27986);2013-04-08 17:02:08.770034;play:SonicTennis:4
('127.0.0.1', 27986);('127.0.0.1', 39052);2013-04-08 17:02:08.770415;play:SonicTennis:4
('127.0.0.1', 39052);('127.0.0.1', 27986);2013-04-08 17:02:15.134883;join:Test_0
('127.0.0.1', 27986);('127.0.0.1', 39052);2013-04-08 17:02:15.135376;join:Test_0
('127.0.0.1', 27986);('127.0.0.1', 39051);2013-04-08 17:02:15.135635;del:Test_0
('127.0.0.1', 27986);('127.0.0.1', 39052);2013-04-08 17:02:15.135906;del:Test_0
('127.0.0.1', 39052);('127.0.0.1', 27986);2013-04-08 17:02:22.193035;ready
('127.0.0.1', 27986);('127.0.0.1', 39052);2013-04-08 17:02:22.193476;lives:3
('127.0.0.1', 27986);('127.0.0.1', 39052);2013-04-08 17:02:22.193758;recv
('127.0.0.1', 39053);('127.0.0.1', 27986);2013-04-08 17:02:57.103174;play:SonicTennis:4
('127.0.0.1', 27986);('127.0.0.1', 39053);2013-04-08 17:02:57.103515;play:SonicTennis:4
('127.0.0.1', 39053);('127.0.0.1', 27986);2013-04-08 17:03:02.625661;list
('127.0.0.1', 27986);('127.0.0.1', 39053);2013-04-08 17:03:02.626100;new:Test_1
('127.0.0.1', 27986);('127.0.0.1', 39053);2013-04-08 17:03:02.626346;new:Test_0
('127.0.0.1', 39053);('127.0.0.1', 27986);2013-04-08 17:03:11.894607;join:Test_0
('127.0.0.1', 27986);('127.0.0.1', 39053);2013-04-08 17:03:11.895065;join:Test_0
('127.0.0.1', 27986);('127.0.0.1', 39051);2013-04-08 17:03:11.895305;del:Test_0
('127.0.0.1', 27986);('127.0.0.1', 39053);2013-04-08 17:03:11.895598;del:Test_0
('127.0.0.1', 39053);('127.0.0.1', 27986);2013-04-08 17:03:19.868570;ready
('127.0.0.1', 27986);('127.0.0.1', 39053);2013-04-08 17:03:19.869004;lives:3
('127.0.0.1', 27986);('127.0.0.1', 39053);2013-04-08 17:03:19.869259;recv
('127.0.0.1', 39051);('127.0.0.1', 27986);2013-04-08 17:04:49.782481;part
('127.0.0.1', 27986);('127.0.0.1', 39051);2013-04-08 17:04:49.783005;part:Test_1
('127.0.0.1', 27986);('127.0.0.1', 39051);2013-04-08 17:04:49.783335;leave:SonicTennis:4
('127.0.0.1', 39054);('127.0.0.1', 27986);2013-04-08 17:04:57.667962;play:SonicTennis:4
('127.0.0.1', 27986);('127.0.0.1', 39054);2013-04-08 17:04:57.668089;play:SonicTennis:4
('127.0.0.1', 39054);('127.0.0.1', 27986);2013-04-08 17:04:57.668438;make:Test:1.000000:3
('127.0.0.1', 27986);('127.0.0.1', 39054);2013-04-08 17:04:57.668603;join:Test_2
('127.0.0.1', 27986);('127.0.0.1', 39054);2013-04-08 17:04:57.668655;new:Test_2
('127.0.0.1', 39054);('127.0.0.1', 27986);2013-04-08 17:04:57.668731;ready
('127.0.0.1', 27986);('127.0.0.1', 39054);2013-04-08 17:04:57.668784;lives:3
('127.0.0.1', 39055);('127.0.0.1', 27986);2013-04-08 17:06:03.296920;play:SonicTennis:4
('127.0.0.1', 27986);('127.0.0.1', 39055);2013-04-08 17:06:03.297267;play:SonicTennis:4
('127.0.0.1', 39055);('127.0.0.1', 27986);2013-04-08 17:06:03.297469;make:Test:1.000000:3
('127.0.0.1', 27986);('127.0.0.1', 39055);2013-04-08 17:06:03.297917;join:Test_0
('127.0.0.1', 27986);('127.0.0.1', 39055);2013-04-08 17:06:03.298085;new:Test_0
('127.0.0.1', 39055);('127.0.0.1', 27986);2013-04-08 17:06:03.298224;ready
('127.0.0.1', 27986);('127.0.0.1', 39055);2013-04-08 17:06:03.298439;lives:3
('127.0.0.1', 39056);('127.0.0.1', 27986);2013-04-08 17:06:15.206486;play:SonicTennis:4
('127.0.0.1', 27986);('127.0.0.1', 39056);2013-04-08 17:06:15.206837;play:SonicTennis:4
('127.0.0.1', 39056);('127.0.0.1', 27986);2013-04-08 17:06:24.040979;join:Test_0
('127.0.0.1', 27986);('127.0.0.1', 39056);2013-04-08 17:06:24.041458;join:Test_0
('127.0.0.1', 27986);('127.0.0.1', 39056);2013-04-08 17:06:24.041643;del:Test_0
('127.0.0.1', 27986);('127.0.0.1', 39055);2013-04-08 17:06:24.041794;del:Test_0
('127.0.0.1', 39056);('127.0.0.1', 27986);2013-04-08 17:06:28.721068;ready
('127.0.0.1', 27986);('127.0.0.1', 39056);2013-04-08 17:06:28.721501;lives:3
('127.0.0.1', 27986);('127.0.0.1', 39055);2013-04-08 17:06:28.721685;serve
('127.0.0.1', 27986);('127.0.0.1', 39056);2013-04-08 17:06:28.721868;recv
('127.0.0.1', 39055);('127.0.0.1', 27986);2013-04-08 17:06:32.723021;hit:c
('127.0.0.1', 27986);('127.0.0.1', 39055);2013-04-08 17:06:32.723603;ownh
('127.0.0.1', 27986);('127.0.0.1', 39056);2013-04-08 17:06:32.723833;opph:l
('127.0.0.1', 27986);('127.0.0.1', 39055);2013-04-08 17:06:33.725064;oppb
('127.0.0.1', 27986);('127.0.0.1', 39056);2013-04-08 17:06:33.725415;ownb:l
('127.0.0.1', 27986);('127.0.0.1', 39055);2013-04-08 17:06:33.936076;part:Test_0
('127.0.0.1', 39055);('127.0.0.1', 27986);2013-04-08 17:06:33.936415;make:Test:1.000000:3
('127.0.0.1', 27986);('127.0.0.1', 39055);2013-04-08 17:06:33.936999;join:Test_1
('127.0.0.1', 27986);('127.0.0.1', 39055);2013-04-08 17:06:33.937304;new:Test_1
('127.0.0.1', 39055);('127.0.0.1', 27986);2013-04-08 17:06:33.937533;ready
('127.0.0.1', 27986);('127.0.0.1', 39055);2013-04-08 17:06:33.937858;lives:3
('127.0.0.1', 27986);('127.0.0.1', 39055);2013-04-08 17:06:33.938166;del:Test_0
('127.0.0.1', 39057);('127.0.0.1', 27986);2013-04-08 17:06:52.680461;play:SonicTennis:4
('127.0.0.1', 27986);('127.0.0.1', 39057);2013-04-08 17:06:52.680825;play:SonicTennis:4
('127.0.0.1', 39057);('127.0.0.1', 27986);2013-04-08 17:06:59.195398;list
('127.0.0.1', 27986);('127.0.0.1', 39057);2013-04-08 17:06:59.195843;new:Test_1
('127.0.0.1', 39057);('127.0.0.1', 27986);2013-04-08 17:07:06.469527;join:Test_1
('127.0.0.1', 27986);('127.0.0.1', 39057);2013-04-08 17:07:06.469998;join:Test_1
('127.0.0.1', 27986);('127.0.0.1', 39057);2013-04-08 17:07:06.470215;del:Test_1
('127.0.0.1', 27986);('127.0.0.1', 39055);2013-04-08 17:07:06.470439;del:Test_1
('127.0.0.1', 39057);('127.0.0.1', 27986);2013-04-08 17:07:09.370300;ready
('127.0.0.1', 27986);('127.0.0.1', 39057);2013-04-08 17:07:09.370726;lives:3
('127.0.0.1', 27986);('127.0.0.1', 39055);2013-04-08 17:07:09.370935;serve
('127.0.0.1', 27986);('127.0.0.1', 39057);2013-04-08 17:07:09.371136;recv
('127.0.0.1', 39055);('127.0.0.1', 27986);2013-04-08 17:07:13.372140;hit:c
('127.0.0.1', 27986);('127.0.0.1', 39055);2013-04-08 17:07:13.372636;ownh
('127.0.0.1', 27986);('127.0.0.1', 39057);2013-04-08 17:07:13.372925;opph:r
('127.0.0.1', 27986);('127.0.0.1', 39055);2013-04-08 17:07:14.373981;oppb
('127.0.0.1', 27986);('127.0.0.1', 39057);2013-04-08 17:07:14.374342;ownb:r
('127.0.0.1', 27986);('127.0.0.1', 39055);2013-04-08 17:07:16.176256;good:3:2
('127.0.0.1', 27986);('127.0.0.1', 39057);2013-04-08 17:07:16.176614;fail:2:3
('127.0.0.1', 27986);('127.0.0.1', 39055);2013-04-08 17:07:16.176831;serve
('127.0.0.1', 27986);('127.0.0.1', 39057);2013-04-08 17:07:16.177028;recv
('127.0.0.1', 27986);('127.0.0.1', 39055);2013-04-08 17:07:17.711891;part:Test_1
('127.0.0.1', 27986);('127.0.0.1', 39055);2013-04-08 17:07:17.712148;del:Test_1
('127.0.0.1', 39055);('127.0.0.1', 27986);2013-04-08 17:07:17.712535;make:Test:1.000000:3
('127.0.0.1', 27986);('127.0.0.1', 39055);2013-04-08 17:07:17.713147;join:Test_0
('127.0.0.1', 27986);('127.0.0.1', 39055);2013-04-08 17:07:17.713302;new:Test_0
('127.0.0.1', 39055);('127.0.0.1', 27986);2013-04-08 17:07:17.750534;ready
('127.0.0.1', 27986);('127.0.0.1', 39055);2013-04-08 17:07:17.751621;lives:3
